digraph "CKeyManager.h"
{
 // LATEX_PDF_SIZE
  edge [fontname="Helvetica",fontsize="10",labelfontname="Helvetica",labelfontsize="10"];
  node [fontname="Helvetica",fontsize="10",shape=record];
  Node1 [label="CKeyManager.h",height=0.2,width=0.4,color="black", fillcolor="grey75", style="filled", fontcolor="black",tooltip=" "];
  Node1 -> Node2 [dir="back",color="midnightblue",fontsize="10",style="solid",fontname="Helvetica"];
  Node2 [label="CGenericMode.h",height=0.2,width=0.4,color="black", fillcolor="white", style="filled",URL="$_c_generic_mode_8h.html",tooltip=" "];
  Node2 -> Node3 [dir="back",color="midnightblue",fontsize="10",style="solid",fontname="Helvetica"];
  Node3 [label="CGenericMode.cpp",height=0.2,width=0.4,color="black", fillcolor="white", style="filled",URL="$_c_generic_mode_8cpp.html",tooltip=" "];
  Node2 -> Node4 [dir="back",color="midnightblue",fontsize="10",style="solid",fontname="Helvetica"];
  Node4 [label="ModesModifiers.h",height=0.2,width=0.4,color="black", fillcolor="white", style="filled",URL="$_modes_modifiers_8h.html",tooltip=" "];
  Node4 -> Node2 [dir="back",color="midnightblue",fontsize="10",style="solid",fontname="Helvetica"];
  Node1 -> Node4 [dir="back",color="midnightblue",fontsize="10",style="solid",fontname="Helvetica"];
  Node1 -> Node5 [dir="back",color="midnightblue",fontsize="10",style="solid",fontname="Helvetica"];
  Node5 [label="CKeyManager.cpp",height=0.2,width=0.4,color="black", fillcolor="white", style="filled",URL="$_c_key_manager_8cpp.html",tooltip=" "];
  Node1 -> Node6 [dir="back",color="midnightblue",fontsize="10",style="solid",fontname="Helvetica"];
  Node6 [label="CModifiers.cpp",height=0.2,width=0.4,color="black", fillcolor="white", style="filled",URL="$_c_modifiers_8cpp.html",tooltip=" "];
}
