digraph "CDrawBarModifier"
{
 // LATEX_PDF_SIZE
  edge [fontname="Helvetica",fontsize="10",labelfontname="Helvetica",labelfontsize="10"];
  node [fontname="Helvetica",fontsize="10",shape=record];
  Node3 [label="CDrawBarModifier",height=0.2,width=0.4,color="black", fillcolor="grey75", style="filled", fontcolor="black",tooltip=" "];
  Node4 -> Node3 [dir="back",color="midnightblue",fontsize="10",style="solid",fontname="Helvetica"];
  Node4 [label="CModificatorInt",height=0.2,width=0.4,color="black", fillcolor="white", style="filled",URL="$class_c_modificator_int.html",tooltip=" "];
  Node5 -> Node4 [dir="back",color="midnightblue",fontsize="10",style="solid",fontname="Helvetica"];
  Node5 [label="CGenericModifier",height=0.2,width=0.4,color="black", fillcolor="white", style="filled",URL="$class_c_generic_modifier.html",tooltip=" "];
}
