%TF.GenerationSoftware,KiCad,Pcbnew,7.0.6*%
%TF.CreationDate,2024-11-10T11:23:50+01:00*%
%TF.ProjectId,BatPlayer,42617450-6c61-4796-9572-2e6b69636164,rev?*%
%TF.SameCoordinates,PX4c0fae0PY730f910*%
%TF.FileFunction,Soldermask,Top*%
%TF.FilePolarity,Negative*%
%FSLAX46Y46*%
G04 Gerber Fmt 4.6, Leading zero omitted, Abs format (unit mm)*
G04 Created by KiCad (PCBNEW 7.0.6) date 2024-11-10 11:23:50*
%MOMM*%
%LPD*%
G01*
G04 APERTURE LIST*
G04 Aperture macros list*
%AMRoundRect*
0 Rectangle with rounded corners*
0 $1 Rounding radius*
0 $2 $3 $4 $5 $6 $7 $8 $9 X,Y pos of 4 corners*
0 Add a 4 corners polygon primitive as box body*
4,1,4,$2,$3,$4,$5,$6,$7,$8,$9,$2,$3,0*
0 Add four circle primitives for the rounded corners*
1,1,$1+$1,$2,$3*
1,1,$1+$1,$4,$5*
1,1,$1+$1,$6,$7*
1,1,$1+$1,$8,$9*
0 Add four rect primitives between the rounded corners*
20,1,$1+$1,$2,$3,$4,$5,0*
20,1,$1+$1,$4,$5,$6,$7,0*
20,1,$1+$1,$6,$7,$8,$9,0*
20,1,$1+$1,$8,$9,$2,$3,0*%
%AMFreePoly0*
4,1,35,0.549497,0.799497,0.570000,0.750000,0.570000,-0.750000,0.549497,-0.799497,0.500000,-0.820000,0.000000,-0.820000,-0.012286,-0.814911,-0.071157,-0.814911,-0.090878,-0.812076,-0.227429,-0.771981,-0.245553,-0.763704,-0.365275,-0.686763,-0.380332,-0.673715,-0.473529,-0.566160,-0.484301,-0.549399,-0.543420,-0.419945,-0.549033,-0.400828,-0.569287,-0.259962,-0.570000,-0.250000,-0.570000,0.250000,
-0.569287,0.259962,-0.549033,0.400828,-0.543420,0.419945,-0.484301,0.549399,-0.473529,0.566160,-0.380332,0.673715,-0.365275,0.686763,-0.245553,0.763704,-0.227429,0.771981,-0.090878,0.812076,-0.071157,0.814911,-0.012286,0.814911,0.000000,0.820000,0.500000,0.820000,0.549497,0.799497,0.549497,0.799497,$1*%
%AMFreePoly1*
4,1,35,0.012286,0.814911,0.071157,0.814911,0.090878,0.812076,0.227429,0.771981,0.245553,0.763704,0.365275,0.686763,0.380332,0.673715,0.473529,0.566160,0.484301,0.549399,0.543420,0.419945,0.549033,0.400828,0.569287,0.259962,0.570000,0.250000,0.570000,-0.250000,0.569287,-0.259962,0.549033,-0.400828,0.543420,-0.419945,0.484301,-0.549399,0.473529,-0.566160,0.380332,-0.673715,
0.365275,-0.686763,0.245553,-0.763704,0.227429,-0.771981,0.090878,-0.812076,0.071157,-0.814911,0.012286,-0.814911,0.000000,-0.820000,-0.500000,-0.820000,-0.549497,-0.799497,-0.570000,-0.750000,-0.570000,0.750000,-0.549497,0.799497,-0.500000,0.820000,0.000000,0.820000,0.012286,0.814911,0.012286,0.814911,$1*%
G04 Aperture macros list end*
%ADD10RoundRect,0.320000X-0.337500X-0.475000X0.337500X-0.475000X0.337500X0.475000X-0.337500X0.475000X0*%
%ADD11RoundRect,0.320000X-0.475000X0.337500X-0.475000X-0.337500X0.475000X-0.337500X0.475000X0.337500X0*%
%ADD12RoundRect,0.320000X0.337500X0.475000X-0.337500X0.475000X-0.337500X-0.475000X0.337500X-0.475000X0*%
%ADD13RoundRect,0.320000X-0.900000X1.500000X-0.900000X-1.500000X0.900000X-1.500000X0.900000X1.500000X0*%
%ADD14RoundRect,0.320000X0.900000X-1.500000X0.900000X1.500000X-0.900000X1.500000X-0.900000X-1.500000X0*%
%ADD15O,5.140000X2.640000*%
%ADD16C,2.140000*%
%ADD17RoundRect,0.070000X1.000000X1.300000X-1.000000X1.300000X-1.000000X-1.300000X1.000000X-1.300000X0*%
%ADD18O,2.140000X2.740000*%
%ADD19RoundRect,0.070000X1.000000X-0.700000X1.000000X0.700000X-1.000000X0.700000X-1.000000X-0.700000X0*%
%ADD20O,2.140000X1.540000*%
%ADD21RoundRect,0.070000X-0.650000X-1.050000X0.650000X-1.050000X0.650000X1.050000X-0.650000X1.050000X0*%
%ADD22RoundRect,0.350000X-0.450000X0.350000X-0.450000X-0.350000X0.450000X-0.350000X0.450000X0.350000X0*%
%ADD23RoundRect,0.350000X0.450000X-0.350000X0.450000X0.350000X-0.450000X0.350000X-0.450000X-0.350000X0*%
%ADD24RoundRect,0.350000X-0.350000X-0.450000X0.350000X-0.450000X0.350000X0.450000X-0.350000X0.450000X0*%
%ADD25RoundRect,0.100000X-1.500000X-3.000000X1.500000X-3.000000X1.500000X3.000000X-1.500000X3.000000X0*%
%ADD26RoundRect,0.070000X-0.800000X0.800000X-0.800000X-0.800000X0.800000X-0.800000X0.800000X0.800000X0*%
%ADD27C,1.740000*%
%ADD28C,2.640000*%
%ADD29RoundRect,0.070000X3.000000X-2.000000X3.000000X2.000000X-3.000000X2.000000X-3.000000X-2.000000X0*%
%ADD30O,6.140000X4.140000*%
%ADD31RoundRect,0.070000X0.350000X0.500000X-0.350000X0.500000X-0.350000X-0.500000X0.350000X-0.500000X0*%
%ADD32RoundRect,0.070000X0.300000X-0.775000X0.300000X0.775000X-0.300000X0.775000X-0.300000X-0.775000X0*%
%ADD33RoundRect,0.070000X0.750000X0.325000X-0.750000X0.325000X-0.750000X-0.325000X0.750000X-0.325000X0*%
%ADD34C,0.740000*%
%ADD35RoundRect,0.070000X1.350000X1.800000X-1.350000X1.800000X-1.350000X-1.800000X1.350000X-1.800000X0*%
%ADD36RoundRect,0.070000X0.400000X-0.450000X0.400000X0.450000X-0.400000X0.450000X-0.400000X-0.450000X0*%
%ADD37C,1.940000*%
%ADD38RoundRect,0.070000X-1.750000X-1.250000X1.750000X-1.250000X1.750000X1.250000X-1.750000X1.250000X0*%
%ADD39RoundRect,0.350000X-0.450000X0.325000X-0.450000X-0.325000X0.450000X-0.325000X0.450000X0.325000X0*%
%ADD40C,4.140000*%
%ADD41RoundRect,0.350000X0.350000X0.450000X-0.350000X0.450000X-0.350000X-0.450000X0.350000X-0.450000X0*%
%ADD42RoundRect,0.070000X-0.530000X-0.325000X0.530000X-0.325000X0.530000X0.325000X-0.530000X0.325000X0*%
%ADD43C,4.740000*%
%ADD44RoundRect,0.070000X0.450000X0.400000X-0.450000X0.400000X-0.450000X-0.400000X0.450000X-0.400000X0*%
%ADD45RoundRect,0.350000X2.000000X1.000000X-2.000000X1.000000X-2.000000X-1.000000X2.000000X-1.000000X0*%
%ADD46RoundRect,0.170000X0.100000X-0.637500X0.100000X0.637500X-0.100000X0.637500X-0.100000X-0.637500X0*%
%ADD47RoundRect,0.220000X0.150000X-0.512500X0.150000X0.512500X-0.150000X0.512500X-0.150000X-0.512500X0*%
%ADD48RoundRect,0.320000X0.475000X-0.337500X0.475000X0.337500X-0.475000X0.337500X-0.475000X-0.337500X0*%
%ADD49C,1.664000*%
%ADD50RoundRect,0.070000X-0.450000X-0.400000X0.450000X-0.400000X0.450000X0.400000X-0.450000X0.400000X0*%
%ADD51RoundRect,0.350800X0.699200X-2.749200X0.699200X2.749200X-0.699200X2.749200X-0.699200X-2.749200X0*%
%ADD52RoundRect,0.220000X0.512500X0.150000X-0.512500X0.150000X-0.512500X-0.150000X0.512500X-0.150000X0*%
%ADD53O,2.940000X1.840000*%
%ADD54FreePoly0,0.000000*%
%ADD55FreePoly1,0.000000*%
%ADD56RoundRect,0.320000X1.075000X-0.400000X1.075000X0.400000X-1.075000X0.400000X-1.075000X-0.400000X0*%
%ADD57RoundRect,0.070000X-0.750000X-0.325000X0.750000X-0.325000X0.750000X0.325000X-0.750000X0.325000X0*%
%ADD58RoundRect,0.070000X-1.350000X-1.800000X1.350000X-1.800000X1.350000X1.800000X-1.350000X1.800000X0*%
%ADD59RoundRect,0.070000X-1.300000X1.000000X-1.300000X-1.000000X1.300000X-1.000000X1.300000X1.000000X0*%
%ADD60O,2.740000X2.140000*%
G04 APERTURE END LIST*
D10*
%TO.C,C1*%
X102514500Y23114000D03*
X104589500Y23114000D03*
%TD*%
%TO.C,C2*%
X88386500Y28702000D03*
X90461500Y28702000D03*
%TD*%
D11*
%TO.C,C3*%
X101854000Y43455500D03*
X101854000Y41380500D03*
%TD*%
%TO.C,C4*%
X91440000Y43455500D03*
X91440000Y41380500D03*
%TD*%
D12*
%TO.C,C5*%
X80518000Y7874000D03*
X78443000Y7874000D03*
%TD*%
%TO.C,C6*%
X78994000Y17018000D03*
X76919000Y17018000D03*
%TD*%
%TO.C,C7*%
X100271500Y31750000D03*
X98196500Y31750000D03*
%TD*%
D10*
%TO.C,C8*%
X93624500Y23114000D03*
X95699500Y23114000D03*
%TD*%
D13*
%TO.C,D2*%
X94742000Y61628000D03*
X94742000Y56228000D03*
%TD*%
D14*
%TO.C,D3*%
X112014000Y56482000D03*
X112014000Y61882000D03*
%TD*%
D15*
%TO.C,J1*%
X86808000Y65989000D03*
X86808000Y37389000D03*
X117408000Y65989000D03*
X117408000Y37389000D03*
D16*
X98298000Y66929000D03*
X100838000Y66929000D03*
X103378000Y66929000D03*
X105918000Y66929000D03*
%TD*%
D17*
%TO.C,J2*%
X19055000Y75463000D03*
D18*
X16515000Y75463000D03*
%TD*%
D19*
%TO.C,J3*%
X86614000Y75200000D03*
D20*
X86614000Y77200000D03*
%TD*%
D21*
%TO.C,JP1*%
X98292500Y63380000D03*
X98292500Y61080000D03*
%TD*%
%TO.C,JP2*%
X100832500Y63380000D03*
X100832500Y61080000D03*
%TD*%
%TO.C,JP3*%
X103372500Y63380000D03*
X103372500Y61080000D03*
%TD*%
%TO.C,JP4*%
X105912500Y63380000D03*
X105912500Y61080000D03*
%TD*%
D22*
%TO.C,R1*%
X85852000Y57880000D03*
X85852000Y55880000D03*
%TD*%
D23*
%TO.C,R2*%
X85852000Y60214000D03*
X85852000Y62214000D03*
%TD*%
D24*
%TO.C,R3*%
X97980000Y23114000D03*
X99980000Y23114000D03*
%TD*%
%TO.C,R4*%
X93662000Y31750000D03*
X95662000Y31750000D03*
%TD*%
%TO.C,R5*%
X97980000Y20574000D03*
X99980000Y20574000D03*
%TD*%
%TO.C,R6*%
X93662000Y20574000D03*
X95662000Y20574000D03*
%TD*%
D22*
%TO.C,R7*%
X93726000Y43418000D03*
X93726000Y41418000D03*
%TD*%
%TO.C,R8*%
X104140000Y43418000D03*
X104140000Y41418000D03*
%TD*%
D25*
%TO.C,SW1*%
X92544000Y74676000D03*
X98044000Y74676000D03*
%TD*%
D26*
%TO.C,U1*%
X67183000Y78867000D03*
D27*
X67183000Y76327000D03*
X67183000Y73787000D03*
X67183000Y71247000D03*
X67183000Y68707000D03*
X67183000Y66167000D03*
X67183000Y63627000D03*
X67183000Y61087000D03*
X67183000Y58547000D03*
X67183000Y56007000D03*
X67183000Y53467000D03*
X67183000Y50927000D03*
X67183000Y48387000D03*
X67183000Y45847000D03*
X67183000Y43307000D03*
X67183000Y40767000D03*
X67183000Y38227000D03*
X67183000Y35687000D03*
X67183000Y33147000D03*
X67183000Y30607000D03*
X67183000Y28067000D03*
X67183000Y25527000D03*
X67183000Y22987000D03*
X67183000Y20447000D03*
X69723000Y33147000D03*
X72263000Y33147000D03*
X74803000Y33147000D03*
X77343000Y33147000D03*
X82423000Y20447000D03*
X82423000Y22987000D03*
X82423000Y25527000D03*
X82423000Y28067000D03*
X82423000Y30607000D03*
X82423000Y33147000D03*
X82423000Y35687000D03*
X82423000Y38227000D03*
X82423000Y40767000D03*
X82423000Y43307000D03*
X82423000Y45847000D03*
X82423000Y48387000D03*
X82423000Y50927000D03*
X82423000Y53467000D03*
X82423000Y56007000D03*
X82423000Y58547000D03*
X82423000Y61087000D03*
X82423000Y63627000D03*
X82423000Y66167000D03*
X82423000Y68707000D03*
X82423000Y71247000D03*
X82423000Y73787000D03*
X82423000Y76327000D03*
X82423000Y78867000D03*
X73533000Y78357000D03*
X76073000Y78357000D03*
%TD*%
D28*
%TO.C,U2*%
X35124500Y12596500D03*
X55124500Y12596500D03*
X35124500Y68096500D03*
X55124500Y68096500D03*
D29*
X55124500Y75846500D03*
D30*
X55124500Y4846500D03*
D29*
X35124500Y75846500D03*
D30*
X35124500Y4846500D03*
%TD*%
D31*
%TO.C,U4*%
X89596000Y43618000D03*
X88646000Y43618000D03*
X87696000Y43618000D03*
X87696000Y41218000D03*
X88646000Y41218000D03*
X89596000Y41218000D03*
%TD*%
D32*
%TO.C,U5*%
X96901000Y46068000D03*
X98171000Y46068000D03*
X99441000Y46068000D03*
X100711000Y46068000D03*
X100711000Y51468000D03*
X99441000Y51468000D03*
X98171000Y51468000D03*
X96901000Y51468000D03*
%TD*%
%TO.C,U6*%
X86995000Y46068000D03*
X88265000Y46068000D03*
X89535000Y46068000D03*
X90805000Y46068000D03*
X90805000Y51468000D03*
X89535000Y51468000D03*
X88265000Y51468000D03*
X86995000Y51468000D03*
%TD*%
D33*
%TO.C,U7*%
X80242500Y10668000D03*
X80242500Y11938000D03*
X80242500Y13208000D03*
X80242500Y14478000D03*
X74842500Y14478000D03*
X74842500Y13208000D03*
X74842500Y11938000D03*
X74842500Y10668000D03*
D34*
X78342500Y11573000D03*
X78342500Y12573000D03*
X78342500Y13573000D03*
X77542500Y11573000D03*
X77542500Y12573000D03*
D35*
X77542500Y12573000D03*
D34*
X77542500Y13573000D03*
X76742500Y11573000D03*
X76742500Y12573000D03*
X76742500Y13573000D03*
%TD*%
D36*
%TO.C,U9*%
X73980000Y39656000D03*
X75880000Y39656000D03*
X74930000Y41656000D03*
%TD*%
D37*
%TO.C,S1*%
X96298000Y15454000D03*
X100298000Y15454000D03*
D38*
X91798000Y15954000D03*
X91798000Y12954000D03*
X91798000Y9454000D03*
X104798000Y15954000D03*
X104798000Y12954000D03*
X104798000Y9454000D03*
%TD*%
D31*
%TO.C,U3*%
X100010000Y43618000D03*
X99060000Y43618000D03*
X98110000Y43618000D03*
X98110000Y41218000D03*
X99060000Y41218000D03*
X100010000Y41218000D03*
%TD*%
D33*
%TO.C,U8*%
X99053000Y25411000D03*
X99053000Y26681000D03*
X99053000Y27951000D03*
X99053000Y29221000D03*
X93653000Y29221000D03*
X93653000Y27951000D03*
X93653000Y26681000D03*
X93653000Y25411000D03*
D34*
X97153000Y26316000D03*
X97153000Y27316000D03*
X97153000Y28316000D03*
X96353000Y26316000D03*
X96353000Y27316000D03*
D35*
X96353000Y27316000D03*
D34*
X96353000Y28316000D03*
X95553000Y26316000D03*
X95553000Y27316000D03*
X95553000Y28316000D03*
%TD*%
D10*
%TO.C,C9*%
X88386500Y25908000D03*
X90461500Y25908000D03*
%TD*%
D13*
%TO.C,D4*%
X117094000Y61882000D03*
X117094000Y56482000D03*
%TD*%
D17*
%TO.C,J4*%
X19055000Y67335000D03*
D18*
X16515000Y67335000D03*
%TD*%
D39*
%TO.C,D5*%
X67497113Y6371903D03*
X67497113Y4321903D03*
%TD*%
D37*
%TO.C,RV1*%
X15454000Y16388000D03*
X13004800Y16388000D03*
D40*
X7754000Y23388000D03*
D37*
X10454000Y16388000D03*
D40*
X18154000Y23388000D03*
%TD*%
D12*
%TO.C,C15*%
X19254611Y42983286D03*
X17179611Y42983286D03*
%TD*%
%TO.C,C16*%
X7731485Y49053208D03*
X5656485Y49053208D03*
%TD*%
%TO.C,C28*%
X7752935Y43052083D03*
X5677935Y43052083D03*
%TD*%
D23*
%TO.C,R19*%
X92544000Y65750000D03*
X92544000Y67750000D03*
%TD*%
D10*
%TO.C,C25*%
X73892500Y37084000D03*
X75967500Y37084000D03*
%TD*%
D23*
%TO.C,R9*%
X96012000Y41418000D03*
X96012000Y43418000D03*
%TD*%
D41*
%TO.C,R24*%
X10398000Y57404000D03*
X8398000Y57404000D03*
%TD*%
D23*
%TO.C,R22*%
X20828000Y55388000D03*
X20828000Y57388000D03*
%TD*%
%TO.C,R10*%
X85693172Y41486277D03*
X85693172Y43486277D03*
%TD*%
D42*
%TO.C,U11*%
X78380500Y5522000D03*
X78380500Y4572000D03*
X78380500Y3622000D03*
X80580500Y3622000D03*
X80580500Y5522000D03*
%TD*%
D10*
%TO.C,C21*%
X17198184Y48982240D03*
X19273184Y48982240D03*
%TD*%
D43*
%TO.C,J5*%
X8671592Y70633841D03*
X8671592Y10633841D03*
X111671592Y70633841D03*
X111671592Y10633841D03*
%TD*%
D11*
%TO.C,C22*%
X5588000Y39391500D03*
X5588000Y37316500D03*
%TD*%
D44*
%TO.C,U14*%
X7874000Y45090000D03*
X7874000Y46990000D03*
X5874000Y46040000D03*
%TD*%
D12*
%TO.C,C20*%
X14913765Y39626183D03*
X12838765Y39626183D03*
%TD*%
D11*
%TO.C,C19*%
X12974952Y54140979D03*
X12974952Y52065979D03*
%TD*%
D23*
%TO.C,R14*%
X67564000Y8915000D03*
X67564000Y10915000D03*
%TD*%
D45*
%TO.C,C12*%
X77984000Y70358000D03*
X72384000Y70358000D03*
%TD*%
D22*
%TO.C,R18*%
X84306500Y5318000D03*
X84306500Y3318000D03*
%TD*%
D46*
%TO.C,U12*%
X9521000Y43111500D03*
X10171000Y43111500D03*
X10821000Y43111500D03*
X11471000Y43111500D03*
X12121000Y43111500D03*
X12771000Y43111500D03*
X13421000Y43111500D03*
X14071000Y43111500D03*
X14721000Y43111500D03*
X15371000Y43111500D03*
X15371000Y48836500D03*
X14721000Y48836500D03*
X14071000Y48836500D03*
X13421000Y48836500D03*
X12771000Y48836500D03*
X12121000Y48836500D03*
X11471000Y48836500D03*
X10821000Y48836500D03*
X10171000Y48836500D03*
X9521000Y48836500D03*
%TD*%
D12*
%TO.C,C17*%
X10877317Y39626183D03*
X8802317Y39626183D03*
%TD*%
D47*
%TO.C,Q2*%
X89444000Y59750000D03*
X91344000Y59750000D03*
X90394000Y62025000D03*
%TD*%
D10*
%TO.C,C10*%
X73109000Y7874000D03*
X75184000Y7874000D03*
%TD*%
D47*
%TO.C,Q3*%
X89394000Y55150000D03*
X91294000Y55150000D03*
X90344000Y57425000D03*
%TD*%
D23*
%TO.C,R13*%
X84306500Y7636000D03*
X84306500Y9636000D03*
%TD*%
D41*
%TO.C,R17*%
X75146500Y4826000D03*
X73146500Y4826000D03*
%TD*%
D22*
%TO.C,R21*%
X3302000Y59420000D03*
X3302000Y57420000D03*
%TD*%
D48*
%TO.C,C26*%
X106934000Y46228000D03*
X106934000Y48303000D03*
%TD*%
D24*
%TO.C,R16*%
X88424000Y31750000D03*
X90424000Y31750000D03*
%TD*%
D11*
%TO.C,C18*%
X10414000Y54151359D03*
X10414000Y52076359D03*
%TD*%
D12*
%TO.C,C13*%
X19273184Y39624000D03*
X17198184Y39624000D03*
%TD*%
D44*
%TO.C,U10*%
X70574500Y14036000D03*
X70574500Y15936000D03*
X68574500Y14986000D03*
%TD*%
D12*
%TO.C,C14*%
X7751149Y51275167D03*
X5676149Y51275167D03*
%TD*%
D48*
%TO.C,C27*%
X104140000Y46228000D03*
X104140000Y48303000D03*
%TD*%
D39*
%TO.C,D6*%
X70104000Y6368000D03*
X70104000Y4318000D03*
%TD*%
D24*
%TO.C,R15*%
X88424000Y23114000D03*
X90424000Y23114000D03*
%TD*%
D49*
%TO.C,L2*%
X105410000Y52324000D03*
X105410000Y54864000D03*
%TD*%
D50*
%TO.C,U13*%
X17034000Y46924000D03*
X17034000Y45024000D03*
X19034000Y45974000D03*
%TD*%
D23*
%TO.C,R12*%
X70104000Y8915000D03*
X70104000Y10915000D03*
%TD*%
D51*
%TO.C,C24*%
X114300000Y43694000D03*
X114300000Y50794000D03*
%TD*%
D10*
%TO.C,C11*%
X73892500Y64770000D03*
X75967500Y64770000D03*
%TD*%
D48*
%TO.C,C23*%
X3302000Y61446500D03*
X3302000Y63521500D03*
%TD*%
D52*
%TO.C,Q1*%
X18409500Y57338000D03*
X18409500Y55438000D03*
X16134500Y56388000D03*
%TD*%
D53*
%TO.C,J6*%
X114681000Y29591000D03*
X118450153Y30869948D03*
X114681000Y27051000D03*
X118450153Y28329948D03*
X114681000Y24511000D03*
X118450153Y25789948D03*
X118450153Y23249948D03*
X118450153Y20709948D03*
X114681000Y21971000D03*
%TD*%
D41*
%TO.C,R20*%
X10906000Y37084000D03*
X8906000Y37084000D03*
%TD*%
D54*
%TO.C,JP6*%
X16114000Y36743229D03*
D55*
X17414000Y36743229D03*
%TD*%
D49*
%TO.C,L1*%
X104568000Y26924000D03*
X104568000Y29464000D03*
%TD*%
D56*
%TO.C,R11*%
X84328000Y12166000D03*
X84328000Y15266000D03*
%TD*%
D57*
%TO.C,U15*%
X6792000Y63754000D03*
X6792000Y62484000D03*
X6792000Y61214000D03*
X6792000Y59944000D03*
X12192000Y59944000D03*
X12192000Y61214000D03*
X12192000Y62484000D03*
X12192000Y63754000D03*
D34*
X8692000Y62849000D03*
X8692000Y61849000D03*
X8692000Y60849000D03*
X9492000Y62849000D03*
X9492000Y61849000D03*
D58*
X9492000Y61849000D03*
D34*
X9492000Y60849000D03*
X10292000Y62849000D03*
X10292000Y61849000D03*
X10292000Y60849000D03*
%TD*%
D59*
%TO.C,J8*%
X106451000Y36835000D03*
D60*
X106451000Y34295000D03*
%TD*%
M02*
