%TF.GenerationSoftware,KiCad,Pcbnew,7.0.6*%
%TF.CreationDate,2024-11-10T11:23:50+01:00*%
%TF.ProjectId,BatPlayer,42617450-6c61-4796-9572-2e6b69636164,rev?*%
%TF.SameCoordinates,PX4c0fae0PY730f910*%
%TF.FileFunction,Paste,Bot*%
%TF.FilePolarity,Positive*%
%FSLAX46Y46*%
G04 Gerber Fmt 4.6, Leading zero omitted, Abs format (unit mm)*
G04 Created by KiCad (PCBNEW 7.0.6) date 2024-11-10 11:23:50*
%MOMM*%
%LPD*%
G01*
G04 APERTURE LIST*
%ADD10R,1.620000X2.160000*%
%ADD11R,1.524000X1.524000*%
G04 APERTURE END LIST*
D10*
%TO.C,U7*%
X77544446Y12580566D03*
%TD*%
%TO.C,U8*%
X96354946Y27323566D03*
%TD*%
D11*
%TO.C,J5*%
X2640592Y15233841D03*
%TD*%
D10*
%TO.C,U15*%
X9490054Y61841434D03*
%TD*%
M02*
