EESchema Schematic File Version 4
LIBS:BatPlayer-cache
EELAYER 30 0
EELAYER END
$Descr A4 11693 8268
encoding utf-8
Sheet 1 1
Title ""
Date ""
Rev ""
Comp ""
Comment1 ""
Comment2 ""
Comment3 ""
Comment4 ""
$EndDescr
$Comp
L teensy:Teensy3.6Min U1
U 1 1 5AD8B8A9
P 4450 5350
F 0 "U1" H 3600 6650 60  0000 C CNN
F 1 "Teensy3.6Min" H 4800 6650 60  0000 C CNN
F 2 "teensy:Teensy35_36Min" H 4300 6550 60  0001 C CNN
F 3 "" H 4200 4400 60  0000 C CNN
	1    4450 5350
	1    0    0    -1  
$EndComp
Text GLabel 6250 3700 2    60   Input ~ 0
GND
Text GLabel 7100 4400 0    60   Input ~ 0
GND
Text GLabel 7100 3900 0    60   Input ~ 0
+3V7
$Comp
L Device:R R4
U 1 1 5AFE761E
P 8050 4900
F 0 "R4" V 8130 4900 50  0000 C CNN
F 1 "100k" V 8050 4900 50  0000 C CNN
F 2 "Alimentations:ResistanceH" V 7980 4900 50  0001 C CNN
F 3 "" H 8050 4900 50  0001 C CNN
	1    8050 4900
	-1   0    0    1   
$EndComp
$Comp
L Device:R R3
U 1 1 5AFE85C9
P 8050 5600
F 0 "R3" V 8130 5600 50  0000 C CNN
F 1 "27k" V 8050 5600 50  0000 C CNN
F 2 "Alimentations:ResistanceH" V 7980 5600 50  0001 C CNN
F 3 "" H 8050 5600 50  0001 C CNN
	1    8050 5600
	-1   0    0    1   
$EndComp
Text Label 1400 6200 2    60   ~ 0
GND_E
Text Label 1400 6100 2    60   ~ 0
VDD_E
Text Label 1400 6300 2    60   ~ 0
SCL_E
Text Label 1400 6400 2    60   ~ 0
SDA_E
$Comp
L Alimentations:ProtectionLIPO U5
U 1 1 5AFF526E
P 9700 2000
F 0 "U5" H 9650 2150 50  0000 L CNN
F 1 "ProtectionLIPO" H 9425 1850 50  0000 L CNN
F 2 "Alimentations:ProtectionLiPo" H 9500 1800 50  0001 L CIN
F 3 "" H 9700 2000 50  0001 L CNN
	1    9700 2000
	1    0    0    -1  
$EndComp
$Comp
L Alimentations:ProtectionLIPO U6
U 1 1 5AFF54C2
P 9700 2400
F 0 "U6" H 9650 2550 50  0000 L CNN
F 1 "ProtectionLIPO" H 9425 2250 50  0000 L CNN
F 2 "Alimentations:ProtectionLiPo" H 9500 2200 50  0001 L CIN
F 3 "" H 9700 2400 50  0001 L CNN
	1    9700 2400
	1    0    0    -1  
$EndComp
NoConn ~ 3200 4400
NoConn ~ 3200 4700
NoConn ~ 3200 4800
NoConn ~ 3200 5300
NoConn ~ 3200 5400
NoConn ~ 3200 5500
NoConn ~ 3200 5700
NoConn ~ 3200 5800
NoConn ~ 3200 5900
NoConn ~ 3200 6000
NoConn ~ 3200 6100
NoConn ~ 3200 6200
NoConn ~ 3200 6300
NoConn ~ 3200 6400
NoConn ~ 3200 6500
NoConn ~ 5400 6500
NoConn ~ 5400 6400
NoConn ~ 5400 6300
NoConn ~ 5400 6200
NoConn ~ 5400 6100
NoConn ~ 5400 6000
NoConn ~ 5400 5900
NoConn ~ 5400 5700
NoConn ~ 5400 5500
NoConn ~ 5400 5400
NoConn ~ 5400 4800
NoConn ~ 5400 4700
NoConn ~ 5400 4600
NoConn ~ 5400 4500
$Comp
L Device:R R1
U 1 1 5B02E0A6
P 2700 6050
F 0 "R1" V 2780 6050 50  0000 C CNN
F 1 "4k7" V 2700 6050 50  0000 C CNN
F 2 "Alimentations:ResistanceH" V 2630 6050 50  0001 C CNN
F 3 "" H 2700 6050 50  0001 C CNN
	1    2700 6050
	-1   0    0    1   
$EndComp
$Comp
L Device:R R2
U 1 1 5B02F1F0
P 2900 6050
F 0 "R2" V 2980 6050 50  0000 C CNN
F 1 "4k7" V 2900 6050 50  0000 C CNN
F 2 "Alimentations:ResistanceH" V 2830 6050 50  0001 C CNN
F 3 "" H 2900 6050 50  0001 C CNN
	1    2900 6050
	-1   0    0    1   
$EndComp
$Comp
L Device:CP C1
U 1 1 5B03AB47
P 7550 4150
F 0 "C1" H 7575 4250 50  0000 L CNN
F 1 "220µF" H 7575 4050 50  0000 L CNN
F 2 "Alimentations:C1000µF" H 7588 4000 50  0001 C CNN
F 3 "" H 7550 4150 50  0001 C CNN
	1    7550 4150
	1    0    0    -1  
$EndComp
$Comp
L Alimentations:2xBatteriesLiPo U7
U 1 1 5B147931
P 10700 2300
F 0 "U7" H 10675 2550 50  0000 L CNN
F 1 "2xBatteriesLiPo" H 10425 2050 50  0000 L CNN
F 2 "Alimentations:2xBatteriesLiPo" H 10600 2150 50  0001 L CIN
F 3 "" H 10800 2350 50  0001 L CNN
	1    10700 2300
	1    0    0    -1  
$EndComp
NoConn ~ 3200 4300
NoConn ~ 3200 5200
$Comp
L Device:C C2
U 1 1 5B17CE04
P 7200 4150
F 0 "C2" H 7100 4050 50  0000 L CNN
F 1 "100nF" H 6950 4250 50  0000 L CNN
F 2 "Alimentations:C100NF" H 7238 4000 50  0001 C CNN
F 3 "" H 7200 4150 50  0001 C CNN
	1    7200 4150
	-1   0    0    1   
$EndComp
Text Notes 7150 6900 0    157  ~ 31
Bat Player V0.12
NoConn ~ 5400 5100
Text GLabel 8350 2150 2    60   Input ~ 0
GND
$Comp
L Device:CP C8
U 1 1 5B26EA06
P 2150 1350
F 0 "C8" V 2300 1300 50  0000 L CNN
F 1 "470µF" V 2000 1250 50  0000 L CNN
F 2 "Alimentations:C1000µF" H 2188 1200 50  0001 C CNN
F 3 "" H 2150 1350 50  0001 C CNN
	1    2150 1350
	0    1    1    0   
$EndComp
$Comp
L Device:R R8
U 1 1 5B742350
P 2450 1950
F 0 "R8" V 2530 1950 50  0000 C CNN
F 1 "2.7" V 2450 1950 50  0000 C CNN
F 2 "Alimentations:ResistanceH" V 2380 1950 50  0001 C CNN
F 3 "" H 2450 1950 50  0001 C CNN
	1    2450 1950
	-1   0    0    1   
$EndComp
$Comp
L Device:C C7
U 1 1 5B744078
P 2450 1600
F 0 "C7" H 2350 1500 50  0000 L CNN
F 1 "100nF" H 2500 1700 50  0000 L CNN
F 2 "Alimentations:C100NF" H 2488 1450 50  0001 C CNN
F 3 "" H 2450 1600 50  0001 C CNN
	1    2450 1600
	-1   0    0    1   
$EndComp
$Comp
L Device:R R7
U 1 1 5B797B73
P 4625 1650
F 0 "R7" V 4705 1650 50  0000 C CNN
F 1 "240k" V 4625 1650 50  0000 C CNN
F 2 "Alimentations:ResistanceH" V 4555 1650 50  0001 C CNN
F 3 "" H 4625 1650 50  0001 C CNN
	1    4625 1650
	0    1    1    0   
$EndComp
$Comp
L Device:C C5
U 1 1 5B797FA9
P 4950 1650
F 0 "C5" V 4800 1600 50  0000 L CNN
F 1 "100nF" V 5100 1550 50  0000 L CNN
F 2 "Alimentations:C100NF" H 4988 1500 50  0001 C CNN
F 3 "" H 4950 1650 50  0001 C CNN
	1    4950 1650
	0    -1   -1   0   
$EndComp
Text Label 2800 4500 0    60   ~ 0
Up
Text Label 2800 4900 0    60   ~ 0
Down
Text Label 2800 5000 0    60   ~ 0
Push
$Comp
L Molex2510:ConnM_01x02 J2
U 1 1 5B7E0ABA
P 1700 1350
F 0 "J2" H 1700 1450 50  0000 C CNN
F 1 "HP" H 1700 1150 50  0000 C CNN
F 2 "Connectors_Molex:Molex_KK-6410-02_02x2.54mm_Straight" H 1700 1350 50  0001 C CNN
F 3 "" H 1700 1350 50  0001 C CNN
	1    1700 1350
	-1   0    0    -1  
$EndComp
$Comp
L BatPlayer-rescue:POT RV1
U 1 1 5B83F9CD
P 4400 1900
F 0 "RV1" V 4300 1900 50  0000 C CNN
F 1 "10K" V 4400 1900 50  0000 C CNN
F 2 "Alimentations:PotentiometrePCB_V" H 4400 1900 50  0001 C CNN
F 3 "" H 4400 1900 50  0001 C CNN
	1    4400 1900
	-1   0    0    -1  
$EndComp
$Comp
L Alimentations:LM384 U2
U 1 1 5B83FFC1
P 3800 1350
F 0 "U2" H 4000 1250 50  0000 L CNN
F 1 "LM384" H 3950 1500 50  0000 L CNN
F 2 "Housings_DIP:DIP-14_W7.62mm_Socket" H 3900 1450 50  0001 C CNN
F 3 "" H 4000 1550 50  0001 C CNN
	1    3800 1350
	-1   0    0    -1  
$EndComp
$Comp
L Device:CP C6
U 1 1 5B744C74
P 2950 1750
F 0 "C6" H 2975 1850 50  0000 L CNN
F 1 "10µF" H 2750 1650 50  0000 L CNN
F 2 "Alimentations:C1000µF" H 2988 1600 50  0001 C CNN
F 3 "" H 2950 1750 50  0001 C CNN
	1    2950 1750
	1    0    0    -1  
$EndComp
$Comp
L switches:SW_DIP_x01 SW1
U 1 1 5B8429D6
P 8400 3900
F 0 "SW1" H 8400 4050 50  0000 C CNN
F 1 "Arrêt/Marche" H 8400 3750 50  0000 C CNN
F 2 "Alimentations:InterAM" H 8400 3900 50  0001 C CNN
F 3 "" H 8400 3900 50  0001 C CNN
	1    8400 3900
	-1   0    0    -1  
$EndComp
$Comp
L Alimentations:Chargeur5V>4V2-eletechsup U4
U 1 1 5B842C47
P 9200 900
F 0 "U4" H 9150 1100 50  0000 L CNN
F 1 "Chargeur5V>4V2-eletechsup" H 8800 1200 50  0001 L CNN
F 2 "Alimentations:Chargeur5V_4V2-V" H 9000 700 50  0001 L CIN
F 3 "" H 9200 900 50  0001 L CNN
	1    9200 900 
	-1   0    0    -1  
$EndComp
$Comp
L Device:R R5
U 1 1 5B8479AD
P 8350 4900
F 0 "R5" V 8430 4900 50  0000 C CNN
F 1 "100k" V 8350 4900 50  0000 C CNN
F 2 "Alimentations:ResistanceH" V 8280 4900 50  0001 C CNN
F 3 "" H 8350 4900 50  0001 C CNN
	1    8350 4900
	-1   0    0    1   
$EndComp
$Comp
L Device:R R6
U 1 1 5B847A47
P 8350 5600
F 0 "R6" V 8430 5600 50  0000 C CNN
F 1 "5k6" V 8350 5600 50  0000 C CNN
F 2 "Alimentations:ResistanceH" V 8280 5600 50  0001 C CNN
F 3 "" H 8350 5600 50  0001 C CNN
	1    8350 5600
	-1   0    0    1   
$EndComp
$Comp
L Alimentations:Conv5-27V>5V-DD2712SA U8
U 1 1 5B84D73D
P 10150 3150
F 0 "U8" H 10100 3350 50  0000 L CNN
F 1 "Conv5-27V>5V-DD2712SA" H 9750 3450 50  0001 L CNN
F 2 "Alimentations:Convertisseur5-27V_5V-H" H 9950 2950 50  0001 L CIN
F 3 "" H 10150 3150 50  0001 L CNN
	1    10150 3150
	-1   0    0    -1  
$EndComp
$Comp
L Alimentations:Conv3.7>12V-DD0612SA U3
U 1 1 5B84EA76
P 7450 850
F 0 "U3" H 7400 1050 50  0000 L CNN
F 1 "Conv3.7>12V-DD0612SA" H 7050 1150 50  0001 L CNN
F 2 "Alimentations:Conv3V7_12V-H" H 7250 650 50  0001 L CIN
F 3 "" H 7450 850 50  0001 L CNN
	1    7450 850 
	-1   0    0    -1  
$EndComp
$Comp
L Device:CP C4
U 1 1 5B851CD1
P 6100 1400
F 0 "C4" H 6125 1500 50  0000 L CNN
F 1 "1000µF" H 5850 1300 50  0000 L CNN
F 2 "Alimentations:C1000µF" H 6138 1250 50  0001 C CNN
F 3 "" H 6100 1400 50  0001 C CNN
	1    6100 1400
	1    0    0    -1  
$EndComp
$Comp
L regul:LF120_TO252 U9
U 1 1 5B85B217
P 6750 6150
F 0 "U9" H 6600 6275 50  0000 C CNN
F 1 "HT7130 LDO 3V" H 6750 6275 50  0000 L CNN
F 2 "Alimentations:SOT-89-3" H 6750 6375 50  0001 C CIN
F 3 "" H 6750 6100 50  0001 C CNN
	1    6750 6150
	-1   0    0    -1  
$EndComp
$Comp
L conn:USB_OTG J4
U 1 1 5B85EF36
P 10650 1050
F 0 "J4" H 10450 1500 50  0000 L CNN
F 1 "USB_OTG" H 10450 1400 50  0000 L CNN
F 2 "Alimentations:Micro-USB-V" H 10800 1000 50  0001 C CNN
F 3 "" H 10800 1000 50  0001 C CNN
	1    10650 1050
	1    0    0    -1  
$EndComp
NoConn ~ 10950 1050
NoConn ~ 10950 1150
NoConn ~ 10950 1250
NoConn ~ 5400 4400
$Comp
L Device:D_Schottky_ALT D1
U 1 1 5B871D45
P 9000 3300
F 0 "D1" H 9000 3400 50  0000 C CNN
F 1 "SS22" H 9000 3200 50  0000 C CNN
F 2 "Alimentations:D_2114" H 9000 3300 50  0001 C CNN
F 3 "" H 9000 3300 50  0001 C CNN
	1    9000 3300
	0    -1   -1   0   
$EndComp
$Comp
L Device:D_Schottky_ALT D2
U 1 1 5B872A3B
P 9950 3650
F 0 "D2" H 9950 3750 50  0000 C CNN
F 1 "SS22" H 9950 3550 50  0000 C CNN
F 2 "Alimentations:D_2114" H 9950 3650 50  0001 C CNN
F 3 "" H 9950 3650 50  0001 C CNN
	1    9950 3650
	0    -1   -1   0   
$EndComp
$Comp
L Molex2510:ConnM_01x02 J3
U 1 1 5B872D11
P 11000 4700
F 0 "J3" H 11000 4800 50  0000 C CNN
F 1 "E 12V" H 11000 4500 50  0000 C CNN
F 2 "Connectors_Molex:Molex_KK-6410-02_02x2.54mm_Straight" H 11000 4700 50  0001 C CNN
F 3 "" H 11000 4700 50  0001 C CNN
	1    11000 4700
	1    0    0    -1  
$EndComp
$Comp
L Device:D_Schottky_ALT D3
U 1 1 5B875583
P 10550 4700
F 0 "D3" H 10550 4800 50  0000 C CNN
F 1 "SS22" H 10550 4900 50  0000 C CNN
F 2 "Alimentations:D_2114" H 10550 4700 50  0001 C CNN
F 3 "" H 10550 4700 50  0001 C CNN
	1    10550 4700
	1    0    0    -1  
$EndComp
Text GLabel 6250 4200 2    60   Input ~ 0
+3V7
$Comp
L SwitchPCB:FiveSwitchs S1
U 1 1 5B884DAD
P 900 5050
F 0 "S1" H 1400 5050 60  0000 C CNN
F 1 "FiveSwitchs" H 1400 5150 60  0000 C CNN
F 2 "Alimentations:JoystickCMS" H 1400 5150 60  0001 C CNN
F 3 "" H 1400 5150 60  0001 C CNN
	1    900  5050
	1    0    0    -1  
$EndComp
Text Label 2800 5100 0    60   ~ 0
Left
Text Label 2800 4600 0    60   ~ 0
Right
$Comp
L Device:Jumper_NC_Small JP2
U 1 1 5B885A1C
P 1800 6350
F 0 "JP2" H 1800 6430 50  0000 C CNN
F 1 "GND_T" H 1810 6290 50  0000 C CNN
F 2 "Alimentations:Jumper2.54" H 1800 6350 50  0001 C CNN
F 3 "" H 1800 6350 50  0001 C CNN
	1    1800 6350
	1    0    0    -1  
$EndComp
$Comp
L conn:Conn_01x04 J1
U 1 1 5B885BD0
P 900 6200
F 0 "J1" H 900 6400 50  0000 C CNN
F 1 "Ecran" H 900 5900 50  0000 C CNN
F 2 "Alimentations:Oled1.3" H 900 6200 50  0001 C CNN
F 3 "" H 900 6200 50  0001 C CNN
	1    900  6200
	-1   0    0    -1  
$EndComp
$Comp
L Device:Jumper_NC_Small JP1
U 1 1 5B886087
P 1800 6100
F 0 "JP1" H 1800 6180 50  0000 C CNN
F 1 "VDD_T" H 1810 6040 50  0000 C CNN
F 2 "Alimentations:Jumper2.54" H 1800 6100 50  0001 C CNN
F 3 "" H 1800 6100 50  0001 C CNN
	1    1800 6100
	1    0    0    -1  
$EndComp
$Comp
L Device:Jumper_NC_Small JP3
U 1 1 5B88615D
P 1800 6600
F 0 "JP3" H 1800 6680 50  0000 C CNN
F 1 "SLC_T" H 1810 6540 50  0000 C CNN
F 2 "Alimentations:Jumper2.54" H 1800 6600 50  0001 C CNN
F 3 "" H 1800 6600 50  0001 C CNN
	1    1800 6600
	1    0    0    -1  
$EndComp
$Comp
L Device:Jumper_NC_Small JP4
U 1 1 5B8861E2
P 1800 6850
F 0 "JP4" H 1800 6930 50  0000 C CNN
F 1 "SDA_T" H 1810 6790 50  0000 C CNN
F 2 "Alimentations:Jumper2.54" H 1800 6850 50  0001 C CNN
F 3 "" H 1800 6850 50  0001 C CNN
	1    1800 6850
	1    0    0    -1  
$EndComp
$Comp
L Device:C C3
U 1 1 5B8949B5
P 6450 1400
F 0 "C3" H 6350 1300 50  0000 L CNN
F 1 "100nF" H 6200 1500 50  0000 L CNN
F 2 "Alimentations:C100NF" H 6488 1250 50  0001 C CNN
F 3 "" H 6450 1400 50  0001 C CNN
	1    6450 1400
	-1   0    0    1   
$EndComp
Text Label 6900 5200 0    60   ~ 0
Mesure_Batteries
Text Label 6900 5300 0    60   ~ 0
Mesure_12V_Externe
Text Label 4500 7300 0    60   ~ 0
3V_Permanent
Text GLabel 6200 850  2    60   Input ~ 0
+12V_Ampli
Text GLabel 10500 3900 2    60   Input ~ 0
+12V_Externe
NoConn ~ 10550 1450
Text GLabel 2700 1100 1    60   Input ~ 0
HP-U
Text GLabel 1950 1100 1    60   Input ~ 0
HP-S
Text GLabel 9300 6150 2    60   Input ~ 0
+3V7_Permanent
Text GLabel 10750 4500 1    60   Input ~ 0
+12V_B
Text GLabel 8750 1950 0    60   Input ~ 0
+3V7_B
Text GLabel 9500 1300 2    60   Input ~ 0
+5V_U
Text GLabel 10500 1950 2    60   Input ~ 0
+3V7_B1
Text GLabel 10500 1750 2    60   Input ~ 0
-3V7_B1
Text GLabel 10550 2700 2    60   Input ~ 0
+3V7_B2
Text GLabel 10550 2850 2    60   Input ~ 0
-3V7_B2
Text GLabel 9800 3450 0    60   Input ~ 0
+5V_E
Wire Wire Line
	3000 3700 5900 3700
Wire Wire Line
	950  4700 800  4700
Wire Wire Line
	800  4700 800  4200
Wire Wire Line
	800  4200 3000 4200
Wire Wire Line
	2300 4500 2300 4700
Wire Wire Line
	1950 4900 3200 4900
Connection ~ 5900 3700
Wire Wire Line
	7100 4400 7200 4400
Wire Wire Line
	8050 5050 8050 5200
Wire Wire Line
	8050 5900 8050 5750
Wire Wire Line
	10150 5900 8350 5900
Connection ~ 5900 5600
Wire Wire Line
	5400 5200 8050 5200
Connection ~ 8050 5200
Wire Wire Line
	5900 7150 2450 7150
Wire Wire Line
	2450 5600 2700 5600
Wire Wire Line
	2450 7150 2450 6350
Wire Wire Line
	5900 5600 5400 5600
Wire Wire Line
	10050 1950 10300 1950
Wire Wire Line
	10300 1950 10300 2150
Wire Wire Line
	10300 2150 10450 2150
Wire Wire Line
	10150 2250 10450 2250
Wire Wire Line
	10150 1750 10150 2050
Wire Wire Line
	10150 2050 10050 2050
Wire Wire Line
	10050 2350 10300 2350
Wire Wire Line
	10050 2450 10150 2450
Wire Wire Line
	9200 2050 9350 2050
Wire Wire Line
	9200 1150 9200 1550
Wire Wire Line
	9200 2450 9350 2450
Connection ~ 9200 2450
Wire Wire Line
	8750 1950 9000 1950
Wire Wire Line
	8050 2350 9000 2350
Connection ~ 9000 2350
Wire Wire Line
	5400 5000 5500 5000
Wire Wire Line
	5500 5000 5500 6850
Wire Wire Line
	5500 6850 2700 6850
Wire Wire Line
	5400 4900 5700 4900
Wire Wire Line
	5700 4900 5700 7000
Wire Wire Line
	5700 7000 2900 7000
Wire Wire Line
	3000 4200 3000 3700
Connection ~ 3000 4200
Wire Wire Line
	2700 5600 2700 5900
Wire Wire Line
	2900 5900 2900 5600
Connection ~ 2900 5600
Wire Wire Line
	7550 3900 7550 4000
Connection ~ 7550 3900
Wire Wire Line
	7550 4300 7550 4400
Connection ~ 7550 4400
Wire Wire Line
	3200 4500 2300 4500
Wire Wire Line
	7100 3900 7200 3900
Connection ~ 7200 3900
Wire Wire Line
	7200 4300 7200 4400
Connection ~ 7200 4400
Wire Wire Line
	6650 1650 6650 5800
Wire Wire Line
	6650 5800 5400 5800
Wire Wire Line
	4100 1450 4150 1450
Wire Wire Line
	3900 2150 3900 1650
Wire Wire Line
	3900 1050 3900 850 
Wire Wire Line
	3900 850  6100 850 
Wire Wire Line
	6100 850  6100 1150
Wire Wire Line
	6100 1150 6450 1150
Wire Wire Line
	2000 2150 2450 2150
Wire Wire Line
	1900 1450 2000 1450
Wire Wire Line
	2000 1450 2000 2150
Connection ~ 3900 2150
Wire Wire Line
	1900 1350 1950 1350
Wire Wire Line
	2300 1350 2450 1350
Wire Wire Line
	4150 1450 4150 2150
Connection ~ 4400 2150
Wire Wire Line
	2450 1350 2450 1450
Connection ~ 2450 1350
Wire Wire Line
	2450 1750 2450 1800
Wire Wire Line
	2450 2100 2450 2150
Connection ~ 2450 2150
Wire Wire Line
	3800 950  3800 1050
Connection ~ 4150 2150
Connection ~ 2700 5600
Wire Wire Line
	3800 1650 3800 2150
Connection ~ 3800 2150
Wire Wire Line
	3700 1650 3700 2150
Connection ~ 3700 2150
Wire Wire Line
	3600 1650 3600 2150
Connection ~ 3600 2150
Wire Wire Line
	3500 1650 3500 2150
Connection ~ 3500 2150
Wire Wire Line
	3400 1650 3400 2150
Connection ~ 3400 2150
Wire Wire Line
	3300 1650 3300 2150
Connection ~ 3300 2150
Wire Wire Line
	4400 2050 4400 2150
Wire Wire Line
	3800 950  2950 950 
Wire Wire Line
	2950 950  2950 1600
Wire Wire Line
	2950 1900 2950 2150
Connection ~ 2950 2150
Connection ~ 9200 2050
Connection ~ 9000 1950
Wire Wire Line
	7250 1150 7250 1100
Connection ~ 6100 1150
Wire Wire Line
	6100 1550 6100 2150
Connection ~ 6100 2150
Wire Wire Line
	7450 1100 7450 2150
Connection ~ 7450 2150
Wire Wire Line
	4250 6800 4250 7300
Wire Wire Line
	4250 7300 6100 7300
Wire Wire Line
	6100 7300 6100 6150
Wire Wire Line
	6100 6150 6450 6150
Wire Wire Line
	5900 6650 6750 6650
Wire Wire Line
	6750 6650 6750 6450
Wire Wire Line
	7050 6150 9000 6150
Wire Wire Line
	9200 1550 10650 1550
Wire Wire Line
	10650 1550 10650 1450
Connection ~ 9200 1550
Wire Wire Line
	9400 1150 9400 1300
Wire Wire Line
	8800 1650 9400 1650
Wire Wire Line
	11100 1650 11100 850 
Wire Wire Line
	11100 850  10950 850 
Wire Wire Line
	5900 3700 5900 5600
Wire Wire Line
	9000 3450 9000 3900
Wire Wire Line
	8700 3900 8800 3900
Wire Wire Line
	9950 3900 9950 3800
Connection ~ 9000 3900
Wire Wire Line
	9950 3400 9950 3450
Wire Wire Line
	10150 3400 10150 4400
Connection ~ 9200 4400
Connection ~ 7850 3900
Wire Wire Line
	10350 3400 10350 3900
Wire Wire Line
	8350 4700 10350 4700
Wire Wire Line
	10150 4800 10800 4800
Connection ~ 10150 4400
Wire Wire Line
	8350 4700 8350 4750
Wire Wire Line
	8350 5050 8350 5300
Wire Wire Line
	8350 5900 8350 5750
Connection ~ 8350 5300
Wire Wire Line
	5400 4200 6250 4200
Connection ~ 5900 6650
Connection ~ 10350 4700
Connection ~ 8350 5900
Connection ~ 10150 4800
Wire Wire Line
	5400 5300 8350 5300
Wire Wire Line
	2300 4700 1950 4700
Wire Wire Line
	950  4900 800  4900
Wire Wire Line
	800  4900 800  5100
Wire Wire Line
	3200 5000 2300 5000
Wire Wire Line
	2300 5000 2300 5100
Wire Wire Line
	2300 5100 800  5100
Wire Wire Line
	3200 5100 2450 5100
Wire Wire Line
	2450 5100 2450 5250
Wire Wire Line
	2450 5250 650  5250
Wire Wire Line
	650  5250 650  4800
Wire Wire Line
	650  4800 950  4800
Wire Wire Line
	3200 4600 2450 4600
Wire Wire Line
	2450 4600 2450 4800
Wire Wire Line
	2450 4800 1950 4800
Wire Wire Line
	1700 6100 1100 6100
Wire Wire Line
	1650 6200 1100 6200
Wire Wire Line
	1700 6600 1550 6600
Wire Wire Line
	1550 6600 1550 6300
Wire Wire Line
	1550 6300 1100 6300
Wire Wire Line
	1700 6850 1450 6850
Wire Wire Line
	1450 6850 1450 6400
Wire Wire Line
	1450 6400 1100 6400
Wire Wire Line
	2450 6350 1900 6350
Wire Wire Line
	1900 6100 2450 6100
Wire Wire Line
	2450 6100 2450 5600
Wire Wire Line
	1900 6600 2900 6600
Wire Wire Line
	2900 7000 2900 6600
Connection ~ 2900 6600
Wire Wire Line
	2700 6200 2700 6850
Connection ~ 2700 6850
Wire Wire Line
	6450 1150 6450 1250
Wire Wire Line
	6450 1550 6450 2150
Connection ~ 6450 2150
Wire Wire Line
	7650 1100 7650 1200
Wire Wire Line
	7650 1200 7850 1200
Wire Wire Line
	4250 1900 4200 1900
Wire Wire Line
	4200 1900 4200 1250
Wire Wire Line
	4475 1650 4400 1650
Wire Wire Line
	4400 1650 4400 1750
Wire Wire Line
	1650 6200 1650 6350
Wire Wire Line
	1650 6350 1700 6350
Connection ~ 6100 850 
Wire Wire Line
	10500 3900 10350 3900
Connection ~ 10350 3900
Wire Wire Line
	2700 1100 2700 1350
Connection ~ 2700 1350
Wire Wire Line
	1950 1100 1950 1350
Connection ~ 1950 1350
Connection ~ 9000 6150
Wire Wire Line
	9500 1300 9400 1300
Connection ~ 9400 1300
Connection ~ 10300 1950
Wire Wire Line
	10150 1750 10500 1750
Connection ~ 10150 2050
Wire Wire Line
	10300 2350 10300 2700
Wire Wire Line
	10300 2700 10550 2700
Connection ~ 10300 2350
Wire Wire Line
	10550 2850 10150 2850
Wire Wire Line
	9800 3450 9950 3450
Connection ~ 9950 3450
Wire Wire Line
	10150 2850 10150 2450
Connection ~ 10150 2450
$Comp
L Device:CP C9
U 1 1 5BA212C5
P 7650 1650
F 0 "C9" H 7675 1750 50  0000 L CNN
F 1 "3300µF" V 7700 1300 50  0000 L CNN
F 2 "Alimentations:C1000µF" H 7688 1500 50  0001 C CNN
F 3 "" H 7650 1650 50  0001 C CNN
	1    7650 1650
	1    0    0    -1  
$EndComp
Connection ~ 7650 1200
Wire Wire Line
	7650 1800 7650 2150
Connection ~ 7650 2150
Wire Wire Line
	7200 3900 7200 4000
Text GLabel 8000 1200 2    60   Input ~ 0
+3V7Conv
Connection ~ 7850 1200
Wire Wire Line
	10700 4700 10750 4700
Wire Wire Line
	10750 4500 10750 4700
Connection ~ 10750 4700
$Comp
L Device:D_Schottky_ALT D5
U 1 1 5BB40617
P 8800 2950
F 0 "D5" H 8800 3050 50  0000 C CNN
F 1 "SS22" H 8800 2850 50  0000 C CNN
F 2 "Alimentations:D_2114" H 8800 2950 50  0001 C CNN
F 3 "" H 8800 2950 50  0001 C CNN
	1    8800 2950
	0    -1   -1   0   
$EndComp
Wire Wire Line
	8800 1650 8800 2800
Connection ~ 9400 1650
Wire Wire Line
	8800 3100 8800 3900
Connection ~ 8800 3900
Wire Wire Line
	8050 2350 8050 4750
NoConn ~ 5400 4300
Wire Wire Line
	6650 1650 5100 1650
Wire Wire Line
	4800 1650 4775 1650
Wire Wire Line
	9000 1150 9000 1950
$Comp
L Device:Jumper_NC_Small JP5
U 1 1 5BD32D0C
P 7850 2750
F 0 "JP5" H 7850 2830 50  0000 C CNN
F 1 "Replace D4" H 7860 2690 50  0000 C CNN
F 2 "Alimentations:Jumper2.54" H 7850 2750 50  0001 C CNN
F 3 "" H 7850 2750 50  0001 C CNN
	1    7850 2750
	0    1    1    0   
$EndComp
Wire Wire Line
	7850 2850 7850 3900
Wire Wire Line
	7850 2650 7850 1200
Wire Notes Line
	7300 4600 8150 4600
Wire Notes Line
	8150 4600 8150 5100
Wire Notes Line
	8150 5100 7300 5100
Wire Notes Line
	7300 5100 7300 4600
Wire Notes Line
	7300 5350 8150 5350
Wire Notes Line
	8150 5350 8150 5800
Wire Notes Line
	8150 5800 7300 5800
Wire Notes Line
	7300 5800 7300 5350
Text Notes 7350 4900 0    60   ~ 0
Replace R4\n10k
Text Notes 7350 5650 0    60   ~ 0
Replace R3\n11k
Wire Wire Line
	5900 3700 6250 3700
Wire Wire Line
	5900 5600 5900 6650
Wire Wire Line
	8050 5200 8050 5450
Wire Wire Line
	9200 2450 9200 4400
Wire Wire Line
	9000 2350 9350 2350
Wire Wire Line
	9000 2350 9000 3150
Wire Wire Line
	3000 4200 3200 4200
Wire Wire Line
	2900 5600 3200 5600
Wire Wire Line
	7550 3900 7850 3900
Wire Wire Line
	7550 4400 9200 4400
Wire Wire Line
	7200 3900 7550 3900
Wire Wire Line
	7200 4400 7550 4400
Wire Wire Line
	3900 2150 4150 2150
Wire Wire Line
	4400 2150 6100 2150
Wire Wire Line
	2450 1350 2700 1350
Wire Wire Line
	2450 2150 2950 2150
Wire Wire Line
	4150 2150 4400 2150
Wire Wire Line
	2700 5600 2900 5600
Wire Wire Line
	3800 2150 3900 2150
Wire Wire Line
	3700 2150 3800 2150
Wire Wire Line
	3600 2150 3700 2150
Wire Wire Line
	3500 2150 3600 2150
Wire Wire Line
	3400 2150 3500 2150
Wire Wire Line
	3300 2150 3400 2150
Wire Wire Line
	2950 2150 3300 2150
Wire Wire Line
	9200 2050 9200 2450
Wire Wire Line
	9000 1950 9350 1950
Wire Wire Line
	9000 1950 9000 2350
Wire Wire Line
	6100 1150 6100 1250
Wire Wire Line
	6100 2150 6450 2150
Wire Wire Line
	7450 2150 7650 2150
Wire Wire Line
	9200 1550 9200 2050
Wire Wire Line
	9000 3900 9000 6150
Wire Wire Line
	9000 3900 9950 3900
Wire Wire Line
	9200 4400 10150 4400
Wire Wire Line
	7850 3900 8100 3900
Wire Wire Line
	10150 4400 10150 4800
Wire Wire Line
	8350 5300 8350 5450
Wire Wire Line
	5900 6650 5900 7150
Wire Wire Line
	10350 4700 10400 4700
Wire Wire Line
	8350 5900 8050 5900
Wire Wire Line
	10150 4800 10150 5900
Wire Wire Line
	2900 6600 2900 6200
Wire Wire Line
	2700 6850 1900 6850
Wire Wire Line
	6450 2150 7450 2150
Wire Wire Line
	6100 850  6200 850 
Wire Wire Line
	10350 3900 10350 4700
Wire Wire Line
	2700 1350 3500 1350
Wire Wire Line
	1950 1350 2000 1350
Wire Wire Line
	9000 6150 9300 6150
Wire Wire Line
	9400 1300 9400 1650
Wire Wire Line
	10300 1950 10500 1950
Wire Wire Line
	10150 2050 10150 2250
Wire Wire Line
	10300 2350 10450 2350
Wire Wire Line
	9950 3450 9950 3500
Wire Wire Line
	10150 2450 10450 2450
Wire Wire Line
	7650 1200 7650 1500
Wire Wire Line
	7650 2150 8350 2150
Wire Wire Line
	7850 1200 8000 1200
Wire Wire Line
	10750 4700 10800 4700
Wire Wire Line
	9400 1650 11100 1650
Wire Wire Line
	8800 3900 9000 3900
$Comp
L Device:R R?
U 1 1 5FF3BB4D
P 6900 1150
F 0 "R?" V 6980 1150 50  0000 C CNN
F 1 "2.7" V 6900 1150 50  0000 C CNN
F 2 "Alimentations:ResistanceH" V 6830 1150 50  0001 C CNN
F 3 "" H 6900 1150 50  0001 C CNN
	1    6900 1150
	0    -1   -1   0   
$EndComp
Wire Wire Line
	7250 1150 7050 1150
Wire Wire Line
	6750 1150 6450 1150
Connection ~ 6450 1150
Wire Wire Line
	4100 1250 4200 1250
$Comp
L Device:C C?
U 1 1 5FFDE88F
P 5275 1900
F 0 "C?" V 5125 1850 50  0000 L CNN
F 1 "100nF" V 5425 1800 50  0000 L CNN
F 2 "Alimentations:C100NF" H 5313 1750 50  0001 C CNN
F 3 "" H 5275 1900 50  0001 C CNN
	1    5275 1900
	1    0    0    -1  
$EndComp
$EndSCHEMATC
